INDEX VERSION 1.130+D:\Users\Hackathon\Desktop\New folder\CurrencyExchanger\.metadata\.plugins\org.eclipse.jdt.core
1661813641.index
157278091.index
2791812867.index
1040362411.index
1075874757.index
2131306717.index
794481233.index
3064462347.index
1577674211.index
318857592.index
3423988565.index
1534591761.index
2194961134.index
1079038258.index
385052327.index
2137645919.index
1008842492.index
2827973200.index
293692079.index
3518299660.index
71018339.index
3676792702.index
3407517886.index
692810719.index
1415060936.index
3709873677.index
3778645487.index
758367541.index
803260010.index
3449156290.index
989135951.index
3659302368.index
495217312.index
3104785919.index
3559871606.index
2694812966.index
3656164898.index
2965654758.index
2855823478.index
4122626005.index
936140080.index
1494953510.index
1334412443.index
254661665.index
1215564732.index
3260877587.index
1969759509.index
3068640910.index
1733994955.index
1624456288.index
1110087651.index
818985018.index
59455280.index
4088940739.index
2664041226.index
1958062085.index
810619209.index
4013218907.index
